0.235409 10 7
0.206226 10 8
0.182879 8 9
0.161479 6 10
0.145914 5 11
0.122568 5 12
0.0953307 5 13
0.0758755 5 14
0.0622568 4 15
0.0525292 3 16
0.0389105 2 17
0.0350195 1 18
0.0272374 1 19
0.0194553 0 20
0.0136187 0 21
0.00389105 0 25
0.00194553 0 31
0 0 1.79769e+308
