2.0742
0.063526
0.240516
1.71153
-0.195491
-3.40282e+38
1.93583
0.569469
1.40512
1.38513
1.14862
2.45368
0.847531
0.646755
0.686613
1.85163
2.3361
0.213621
0.558556
0.324254
-0.0633366
-0.0739232
-0.591204
0.482067
0.167559
0.659413
1.94197
0.889225
0.368716
0.100637
0.613007
0.730936
0.742641
0.377367
2.90805
0.184763
0.551924
1.10846
2.5663
2.97423
1.3512
0.543336
0.604046
1.45625
0.157397
0.383842
0.684828
0.716332
1.65863
-0.181714
-3.40282e+38
1.66106
0.828132
-0.232716
0.433469
0.571059
0.558493
0.78137
0.206199
0.406272
0.148591
0.970688
1.48491
0.225985
0.914981
0.0527144
0.268725
0.532797
-3.40282e+38
0.640875
0.503876
-0.00337346
-0.0163833
-0.0308727
0.453885
0.523424
0.00532243
-0.122138
0.746871
1.27451
0.0013128
0.983135
1.74877
-inf
3.36866
-0.207406
4.56956
1.36275
1.74473
0.137142
0.184882
2.02873
1.00413
0.794302
2.36962
0.310252
1.42999
-0.0228777
0.49957
0.158809
0.65772
0.986042
0.0770118
-inf
1.23133
0.843698
0.304084
0.614088
1.182
0.673365
2.28786
0.601533
0.103091
0.423106
0.419095
3.78207
0.203457
0.213673
-0.0261152
-3.40282e+38
0.457156
0.376669
0.867574
-inf
1.08885
0.385779
0.161297
0.00105057
0.173879
0.820941
0.0097497
0.776392
0.198733
0.218851
-3.40282e+38
0.761159
1.31359
1.97847
1.66855
1.49212
0.728229
0.613705
1.03435
-0.133265
1.22481
1.73209
0.204122
-0.139591
-inf
0.37686
0.341144
0.605522
0.288643
0.0528245
0.696296
0.794982
1.66124
1.10192
0.153917
0.450777
0.975557
0.673122
0.282032
1.04407
0.0275672
0.879563
2.09579
0.141038
0.902385
0.423551
0.712579
0.753976
0.348543
0.846278
0.608127
0.0288849
-inf
0.18927
-0.211389
0.666366
1.43097
2.06542
0.621862
0.818737
1.27644
0.989592
0.512851
0.126641
-3.40282e+38
-3.40282e+38
0.538872
0.184828
2.35888
0.16568
1.30661
0.566593
1.82836
-0.10589
0.993915
0.778637
1.81297
0.855764
0.164911
-0.192359
2.82711
0.779053
2.64294
0.619024
0.554007
-0.00180652
1.19019
1.26747
4.57747
1.02947
0.365856
0.981309
0.0222254
0.809343
1.07345
0.599614
0.396874
0.288941
0.0264875
1.42076
1.31624
1.79544
3.28425
1.6812
0.829407
0.104649
1.87191
0.521388
0.12633
-0.132467
2.22063
1.11905
1.24129
3.18982
0.206874
1.08934
0.441147
2.24661
0.897948
0.890403
1.33264
2.3262
0.664043
0.738899
0.17948
0.518262
0.79718
0.7987
1.41485
0.213718
0.719632
-3.40282e+38
2.8431
0.583863
0.228355
0.802729
0.10995
0.925872
1.7894
2.92044
-3.40282e+38
1.3675
-0.0135149
0.0289642
0.247922
1.0547
-0.315623
0.733264
-3.40282e+38
2.45414
4.28333
1.03127
0.365268
0.418973
0.441498
0.196648
0.989066
-0.268177
1.16001
0.458043
0.100985
0.210325
0.378514
1.36968
3.84471
1.76181
1.62496
0.721356
-3.40282e+38
1.4869
0.875433
0.505644
0.986689
0.583786
0.140467
0.852246
1.06261
0.415431
1.34959
0.468495
2.79499
-1.13312e-05
0.354515
1.08779
0.573566
0.823811
0.902957
2.10404
1.087
0.495857
2.50175
0.678481
0.857489
1.45035
4.06113
0.646535
0.0433257
1.46751
0.191496
-0.312898
0.130636
0.365121
0.515633
0.268555
1.14555
2.58127
0.386567
0.181948
1.03553
0.666374
0.144766
0.164479
1.77711
1.27582
1.07942
1.08557
0.335438
2.69555
2.58201
-0.181066
0.50938
1.7556
0.914503
-0.160536
1.57454
2.18006
1.01811
1.60899
5.14543
-0.106475
1.65623
1.46795
0.454956
0.689643
1.60704
1.16172
0.297988
0.110523
1.82984
0.758111
-0.0284575
-0.287745
0.224709
1.84661
0.715848
2.66226
1.40965
0.793269
0.494525
0.450919
3.65197
0.833634
-0.605797
0.435279
0.570632
1.633
1.28972
-3.40282e+38
0.475178
-inf
0.480819
2.69773
0.3464
0.824917
1.08261
0.392333
0.850037
1.29113
0.140229
0.629978
0.870321
1.3971
0.901063
0.413071
1.00388
0.66092
0.10493
2.05312
0.33817
1.51013
0.818971
0.396181
0.102418
0.712795
0.440787
0.549127
1.83636
4.00531
-0.242825
1.07044
0.460973
1.04653
1.72017
0.233858
1.76729
1.72386
0.363193
1.8516
0.727998
2.89889
1.05857
1.11689
0.372326
0.451418
0.0502604
0.622938
0.0143194
-3.40282e+38
2.37656
0.95783
1.08197
0.786744
1.28332
0.755719
0.249792
0.365388
1.52938
0.778079
0.246509
1.21113
0.0249853
1.19481
0.741877
1.24653
1.18327
3.73377
1.1689
0.643642
0.289101
0.678506
1.44535
0.961703
0.0518241
0.254726
1.26869
0.556733
0.452491
1.52203
0.485897
1.28183
0.460332
1.37542
2.1998
-0.0342041
-0.273166
1.7314
0.715445
0.690461
0.399498
0.696329
1.0098
-0.456593
0.103119
0.595711
0.592507
-0.208721
0.331906
0.977595
0.971413
0.924125
1.79653
2.33297
0.221287
1.43273
0.46349
0.598254
1.18664
1.47545
0.367683
0.929253
0.304533
0.468552
1.31189
3.17539
0.598243
0.00734101
