0.485187 162
0.456711 64
0.441926 31
0.429445 21
0.416618 12
0.407183 7
0.395854 6
0.383604 5
0.362335 4
0.351148 4
0.333847 3
0.320598 1
0.303401 1
0.286684 1
0.274818 1
0.252696 1
0.236523 1
0.216013 1
0.204488 1
0.193139 1
0.182887 1
0.164879 0
0.15316 0
0.146808 0
0.140123 0
0.130181 0
0.117535 0
0.108841 0
0.102507 0
0.099991 0
0.0936824 0
0.0783409 0
0.0683501 0
0.0625553 0
0.0562254 0
0.0524396 0
0.0447322 0
0.0409835 0
0.0309951 0
0.0297046 0
0.0249272 0
0.0186754 0
0.0173551 0
0.0135302 0
0.00992709 0
0.00745246 0
0.00619198 0
0.00366662 0
0.0024586 0
0.00130995 0
0 0
