0.690661 126 2
0.653696 53 3
0.632296 30 4
0.608949 14 5
0.59144 10 6
0.575875 10 7
0.550584 6 8
0.535019 5 9
0.521401 5 10
0.5 3 11
0.474708 2 12
0.445525 2 13
0.424125 1 14
0.404669 1 15
0.385214 1 16
0.365759 1 17
0.342412 0 18
0.319066 0 19
0.301556 0 20
0.284047 0 21
0.268482 0 22
0.243191 0 23
0.215953 0 24
0.192607 0 25
0.177043 0 26
0.153696 0 27
0.143969 0 28
0.138132 0 29
0.120623 0 30
0.11284 0 31
0.105058 0 32
0.0933852 0 33
0.077821 0 34
0.0680934 0 35
0.0603113 0 36
0.0544747 0 37
0.0428016 0 38
0.040856 0 39
0.0272374 0 40
0.0214008 0 41
0.0175097 0 42
0.0155642 0 43
0.0136187 0 44
0.0116732 0 45
0.00972763 0 47
0.00583658 0 48
0.00389105 0 50
0.00194553 0 69
0 0 1.79769e+308
