-2.15211898556e-05
0.000282133440452
-0.000149828140156
5.78224039788e-05
-0.000211661689844
0.00052057309929
-0.000239869214783
-4.6497396929e-05
9.46100122039e-05
2.99183154479e-05
-0.000283142678594
8.68824532648e-05
-0.000438158002973
-0.00011922121177
-0.000194636786059
-0.000310103528691
9.90313321032e-05
0.000107744387155
2.9818371714e-05
-5.33531800387e-05
0.000114320282302
-0.000192731349223
3.25228304882e-05
-0.000142437192777
-0.000112356364822
-0.00047146866514
-0.000309925280961
-0.000315772495703
-0.000218844631499
-0.000257030429681
-9.44972925238e-05
-0.000185529732985
-0.000129446299624
-0.000192687646771
-0.000249460319726
-0.000394272327055
-0.000224091477561
-6.27180797605e-05
0.000180812017912
-0.0002314257541
-0.00110337387881
-0.000673441136353
-0.000125139930482
-0.000154527443921
-0.000161618094041
-0.000770652811635
0.00030561146087
-0.000926609036127
-0.000134815243129
-0.0004031515305
-0.00058301628632
0.000124690543263
-0.000577065351444
-0.000140650932261
3.11048297459e-05
-0.000261940080752
0.00027326293232
-8.98328526338e-05
-0.000134477447888
0.000237269294023
2.27637901e-05
-9.98024575089e-05
-9.1645750578e-05
-1.86276621369e-05
0.000184268662625
-0.000132893632711
-0.000231490760067
-0.000465278435803
-0.000239097405214
-7.36392264673e-05
-5.74044905259e-05
-0.000327836554918
-9.27178493166e-05
-0.000272591651704
-6.00184623879e-05
-0.000128918463196
-0.000339389580245
2.59001421687e-05
0.000308662392015
-9.39945413534e-05
-0.000217497781659
-2.72266360921e-05
2.52626312607e-05
-0.000229279715608
-5.64430555658e-05
-0.000273495304464
-0.000314970130448
6.78289706148e-05
-0.000317235638903
-0.000613837229955
-0.000319991971596
-0.000157983108549
7.22273593543e-05
-0.000207525672044
0.000247487777205
0.000170015250433
-0.000329564546697
-0.000534302011621
0.000181766707399
0.000240549213345
-0.000217256743826
-0.000439550249616
-0.000240374568956
0.000132468984403
0.000306988022762
-4.91296973419e-05
-0.000465731945429
-0.000470695180075
-0.000206951767266
2.95404469287e-05
-0.000244955459052
-8.30340332858e-05
-0.000627288895952
-7.30913654033e-05
-0.000333703828068
-0.000311776206653
-0.000330140244442
-0.000472386546853
-0.000280460711424
-0.000330957951888
-0.000189467370309
-3.44134529427e-05
-0.000769239011734
0.000226893052726
-8.19305596575e-05
0.000270214310423
-0.000178498877538
-0.00030822261965
-0.000266904689123
-0.000376804948829
-0.000222957881629
-0.000115898256347
-9.1992825569e-05
6.24509498441e-05
-0.000486025705773
-0.000180515993148
-0.000154505652714
-0.000357183368282
-0.000399827084535
6.55845884586e-05
-0.000286049665585
-0.000183051074747
-0.000162262237733
-2.16340868527e-05
-0.000251814387747
-0.000166654950432
0.000109489751625
-8.21613370974e-05
-0.000172662458335
-0.000127339036541
-0.000219532153711
0.000131215470623
-0.000695886450113
0.000183126662839
-0.000216558505806
0.000287033058563
-0.00015977982057
-0.000122999110915
-0.000218921352139
0.000166279393623
-0.000133584812994
-9.33855685613e-05
0.000170633913805
-0.000348018573482
2.38315963458e-05
-0.000105155191585
-0.000142289226985
-0.000318749623578
-0.000131243516982
2.08442103234e-05
-0.00028575059362
-0.000443336162199
-0.000264450248293
-4.27949916517e-05
-0.000129099653274
-0.000369599540117
-0.00054148445648
-0.000163172216832
-0.000451251199427
-0.000303739869098
-7.10850042114e-05
-0.000307838102265
0.000149088116931
-0.000178063450229
-0.000227422384499
6.8027479695e-05
-7.12003438471e-05
-0.000260420086275
-0.000334144018624
-0.000250589709038
-0.000278558402451
8.61377091612e-05
0.000183790428119
5.01486180856e-06
-5.0022529867e-05
1.20547375901e-05
7.26080772734e-05
-0.000341705971563
-0.000342854518837
-0.000261947127127
-0.000407662822956
-8.8076423247e-05
-0.000195722734217
0.000213151598897
-0.000348964973961
2.04272179957e-05
-0.000307552086238
-0.000337187078129
-1.78955336204e-05
-1.73742871659e-05
-7.1319262055e-05
8.97482317588e-05
-0.00094319691265
-0.000109072429049
-0.000725152439601
-1.02803015737e-05
4.03453239376e-05
6.93922102969e-05
0.000185745605362
-2.4191671554e-05
-0.000699226033797
-7.08560166736e-05
-0.000311286887132
2.72310593657e-07
-0.000273297311834
-0.000275027979658
-0.000396894280322
7.68645873902e-05
-0.000422711833692
-0.000176172524578
-0.000505190623147
-0.000229536124955
-9.93541978296e-05
-2.90382650557e-05
-0.000287517951676
0.000170388783884
0.000191218842993
-0.000282322440044
-0.00030850929205
-0.000200824801493
0.000314735611981
-0.000173836006929
-9.53957707492e-05
-3.34133973115e-06
-4.69952154609e-05
0.000514329404515
4.1585096288e-05
0.000228995180258
-0.000317197843301
-2.07622513256e-05
-0.000571348866062
4.02221092229e-05
-0.000493618531251
0.000185079071914
4.99202687497e-05
9.60953291858e-05
-3.82426645946e-05
-0.000233455090019
-0.000229860149366
0.000324431723452
-0.00015366530795
-0.000140532045574
-0.00025742665564
6.53393646274e-05
-0.000280795748782
-5.00244525079e-05
0.000318949135202
0.000410804910672
-0.00116479538673
0.000773177547435
-1.68879580785e-05
-9.51040999578e-05
7.99554607674e-05
0.000334923736264
-0.000356824813274
0.000172628000859
-4.51787658162e-05
0.00010659554209
-0.000225383091043
0.000129387471784
-0.00057899570911
0.000261033487268
-0.000138022124711
-0.000262594994182
-0.000269885413029
0.000326352793964
-0.000165468313093
-0.000180414229058
-0.000140283920317
-3.81731653056e-05
-0.000153329187753
0.000122246973046
-0.000175864076285
-0.00049693585593
-0.000299870850335
0.000226355171605
-0.000467119727319
7.65292840465e-05
-0.000167581539237
-0.000121935235103
-0.000323168980471
-2.34940181541e-05
-0.000206321868128
-0.000159703439551
-0.000632283874566
-0.000276586754737
6.04661836141e-05
6.66434268899e-05
-4.65719829481e-05
-0.00030756689673
-0.000183218683387
-0.000429610119585
-0.000475536721337
-0.000318680464683
-0.000180720266604
5.35401872264e-05
-0.000346106239985
0.000167728748612
1.96844553667e-05
-7.0190405512e-05
0.000176091487845
-9.83048596061e-06
-0.000104781608363
-0.000212136180831
-0.000349462647316
-5.52626467741e-05
0.000401626994901
-0.000198725975708
-0.000106162024275
-7.69157368033e-05
-0.000305486439509
-0.000328070667877
-0.000517646013906
-0.000200701397503
0.000636785168287
0.000326952501754
-0.000370493134305
-0.000269612437015
0.000241269684261
-7.14786228356e-05
-0.000101113733577
0.000206522157207
-0.000827505496017
0.000187121447379
-3.23562111687e-05
-1.98218198336e-06
0.000173783415089
-1.63531093891e-05
-0.000116430571181
-0.000110377917229
-0.000174739542445
-0.000767698898523
-0.000528461288019
-0.00102563346145
-0.00108499231795
-0.000312326776613
6.74526801943e-05
-0.000284207389364
-7.40063858832e-05
-3.64784628759e-06
-0.000299447700878
-0.000164545086111
-0.000425724072005
0.000224215967563
-0.000162238933545
0.000250676189737
2.80164255587e-05
5.56161012483e-06
-0.000141966855484
-3.58339607137e-05
-0.000651410084715
-8.97450309262e-05
6.56010339683e-05
0.000310877048803
-0.00028626706567
-0.000175304078545
-0.00064995736854
-3.81052411507e-05
-0.000406572988814
-4.47203950985e-05
0.000245006076354
-3.90514802734e-05
-0.000270157540199
-0.000655705730561
0.000306973234269
3.18238307205e-05
-0.000194513636855
0.000552017711557
-8.68147862889e-05
-0.000369200571423
8.62755561317e-05
-0.000125925142006
1.87511305686e-05
0.000194989887243
0.000176487850937
-0.000436119214679
-0.000210519823064
-0.000156560065045
-0.000346306911245
4.0855682593e-05
-0.00016205839924
-7.80722140942e-05
-0.000315628216791
-0.000211025207359
-0.00011678447125
0.000273686332404
0.000480047590422
8.99402343487e-05
-0.000159951137511
-0.000405173916954
4.67337622157e-05
-8.68994431154e-06
-0.000250094954815
-0.000160724088666
-0.00034963055695
-0.00011969975301
-6.25726500474e-06
-0.000101901561938
9.37714742309e-05
4.67537971981e-05
3.31737711804e-05
-5.51706622555e-05
-0.000121661124193
-0.000253825391232
-0.000370797111621
6.44865917485e-05
-0.00024332889429
-0.000315677980617
-6.63290709092e-05
-5.4422478158e-05
-0.000136714505338
-5.07316694525e-05
-0.000216386570293
-0.000120199638561
-0.000212281895972
-0.00022475454091
-0.000358637061717
-1.32109529992e-05
-0.000274763047412
-0.000255350185002
-0.000878462503769
-0.00042239471482
8.55104776781e-05
-0.000124720805258
-8.0141505493e-05
-4.27580648757e-05
-3.28030188892e-05
0.000313934012628
-0.000190467951867
-1.68739746171e-05
1.50127414975e-05
3.24649628053e-06
-0.000108417808104
5.23624759907e-07
-4.18187213149e-05
5.12062110989e-05
-0.000147165820401
-9.89332131918e-05
-0.000308182298396
-0.000376406740339
-0.000214576224088
-3.29947565498e-05
-0.000659136484282
-4.24938786763e-05
-0.000423488709644
2.67327350385e-05
8.4296591139e-05
-0.0003441079546
-0.00046351646344
-2.20351700932e-05
0.000161931894816
-1.91637885374e-05
-0.000338792708336
-0.000104465141737
-0.000240563016452
-7.52985273384e-05
-0.000387707593337
0.000157229123146
0.000228241356402
-0.000340458149114
-0.000302324549215
0.000149093020665
-0.000398006138712
0.000110849616283
-0.000542269995948
-0.000240081676636
-0.000868530954523
-0.000157309841951
-0.000200995508567
-0.000130855339412
-0.000204018274699
-0.000203240613366
-0.000226522064356
5.71782666698e-05
1.29776692582e-06
-0.000233316540045
2.45115730064e-05
-0.000524655684009
-0.000181041835433
-0.000351291708196
-0.000292397341686
-0.00030331451446
-0.000253906227449
-0.000392351497518
2.33489972464e-05
0.000141503285546
-0.000409745015707
4.89214643535e-05
3.21612350418e-05
-0.000285989017728
0.000628771933798
0.000271488943886
-0.000250516210536
-6.46803133504e-05
0.000729389257261
9.38712157176e-05
-0.000397774708133
-0.00011218608278
-0.000226247917703
0.000287897056564
-3.31067022732e-05
-0.000223265782859
-0.000158496990604
-6.94230966571e-05
-0.000601116922155
-0.000229353846332
-6.80662345948e-05
-7.83380427988e-05
-0.00031960744018
-0.000117790876372
0.000105604298871
-0.000230717859032
-0.000502394156212
-0.000115317188498
-0.00057666675123
-7.00327293432e-05
-0.000688761794612
-0.00039083181553
4.77929099887e-05
-0.00033827493361
-1.83005122786e-05
-0.000369323919814
-0.000898242069279
6.56093308348e-05
-0.000608125732128
-0.000405226905602
-0.000190257387227
-9.40378069481e-05
-0.000305883810129
-8.79950053619e-06
-0.000189593421346
0.000129572545397
-0.000275545903682
-5.16789701616e-05
-6.13934732513e-05
-0.000103866316163
-0.000235866358148
-0.000161461878114
0.000412218002948
-0.000449668802894
-0.000521106270205
5.18817478198e-05
-0.000305694961599
-9.4048037447e-05
-0.000293101085409
0.000267944664309
-0.000342877601003
0.00054467722096
2.50807836418e-05
-0.000590920027835
-0.000413655910364
8.1844397752e-05
0.000100785933222
0.000141887223419
-0.000122501556275
-6.99320332303e-05
1.65997766483e-05
0.000134427259038
-0.000109290893915
-4.7579202513e-05
-9.55920175058e-05
-4.66600607813e-05
-0.000163205479645
-8.38842273725e-05
-0.00022278914314
5.95117940676e-05
0.000329107403097
7.6339262535e-05
-0.000374473017205
-0.000223364432533
-4.19600167563e-05
-0.000246201591663
-0.000423022718674
0.000248335478784
0.000352477360238
-0.00011811905603
4.28153188604e-06
-0.000273167712846
-0.000222678401486
-0.000206837446806
-0.000603324282685
2.06799933806e-05
-0.000259151054395
-0.000309716922709
-5.54037293363e-05
4.89527610241e-05
-2.32097648644e-05
1.25536336554e-05
7.94095139744e-06
-9.07956386609e-05
-0.000167715441724
-0.000123779915811
0.000235968893824
-1.74609192023e-05
-0.000331342269576
-0.000162361131366
-0.00106402693785
8.80401129657e-05
-0.000683008037291
-2.20343699537e-05
-0.000388813472187
-0.000282374003799
-0.000103115915038
-0.000150032539643
-0.000525170540829
-0.000138919347532
-0.000231401602174
-0.000243148209219
0.000467621676302
0.000127501819926
-0.000349899993181
-0.000366313976049
-0.000407553907317
-0.00015178651282
-9.34102988056e-05
-4.14207028027e-05
0.000122150438786
-3.32820853873e-07
-0.000467436770726
-0.000153769697534
-0.00051709372767
0.000536641054194
0.000113662323589
-3.95920100296e-05
-0.000455686677499
-0.000133900317967
-0.000130877866857
-0.000767128340462
-0.000170683542331
-0.000245811427051
0.000338310169873
-0.000872915331901
-5.92318465116e-05
-1.04315915667e-05
-0.000209434774924
0.000505098307596
4.37420117857e-05
4.40709471548e-05
-0.000303560534048
-0.000155734230841
-0.000175073874961
0.000223179799765
-6.57480948316e-05
-8.24625804439e-05
-0.000500833224287
-0.000324261334092
-0.000118751839973
-0.000314845007771
-0.000184603415559
2.33258008691e-05
-3.0310906977e-05
-0.000196756663814
3.94222780178e-05
2.91745541594e-05
-4.02476326764e-05
6.97256477861e-05
9.06007486111e-07
0.000189958607472
0.000130758602432
-0.000238835774912
-0.000231364762917
-0.000456336287819
0.000261567321993
2.74851936609e-06
-0.000356902638984
-0.000348045113876
-8.02407216201e-05
-4.52805644268e-05
-0.000224381632292
-0.000349562742152
-0.000349253936005
9.99353562597e-05
0.00013646552408
-0.000421887155827
-0.000249984864941
-5.21038075001e-05
-0.000358603732804
-0.000248869480864
-0.000189418154456
4.55237244982e-05
-0.000455397287696
-0.000166433458187
-0.000225687811117
1.28085823211e-05
-0.000160553279555
3.52866966664e-05
-0.000230617755114
-0.000392476026821
0.000201706072281
1.73691346025e-05
-0.000188191150097
4.64765888263e-05
-0.000251462894774
9.72116875286e-05
1.72668756589e-05
0.000148620729663
0.000108899615281
-0.00016104900457
-3.44688488599e-05
-2.18213277097e-05
-0.000140974458581
0.000273798327896
-0.000405087819472
0.000588689405905
-8.78015979543e-05
-5.32162225614e-05
-0.000147212749353
-0.000395314948241
0.000122476530967
-0.000201015264762
-0.000114397037199
-4.05843265583e-05
-0.000157235015899
-0.000209302953706
-0.000842944724787
9.47458818291e-06
-0.000586889836949
-0.000357642615531
-0.000163895159202
-0.00014526589997
-0.000263212782642
-1.34680222764e-05
-0.000176379929059
-0.000166306059063
0.000339305342641
-1.64112080779e-05
0.000370902899405
-0.000179033788358
-0.000214667658783
-9.31627091824e-05
-0.000168008215854
5.89019092735e-05
0.00035768648453
-0.000288678192395
-0.000317329776465
-0.000365302055863
-0.000337701394147
-7.92173861353e-05
0.000398639081206
0.000105814608209
-2.45067426981e-05
-0.000143393757466
-0.000109383266288
-0.000118426514381
-0.000293300646951
-0.000129303849456
-8.97945719068e-05
-6.34794400104e-05
-0.000123926340839
0.000658373353042
-0.000130034883984
3.39720234466e-05
-8.12007361018e-05
0.000120825513375
0.000531454568513
-0.000371922414654
-0.00038878105856
0.000269000212257
-0.000487989414252
-6.85823592748e-05
-0.000328376373662
0.000136080679242
-0.000267697950232
5.43002936977e-05
-0.000509554751313
-0.00018916725692
7.80541419839e-05
-9.25510645644e-05
-0.000103973118474
-0.000109843059645
-2.35589748954e-05
0.000181658072757
-4.08685918349e-05
-2.72706553054e-05
-7.89839379208e-05
-0.000283436515198
-0.000230155954837
7.64621315137e-05
-0.000183936995602
-0.000168567538189
-0.000219560930708
-0.000115550126143
-0.000289728899922
8.92488858475e-06
-0.000268571330502
-9.29347475478e-05
0.000469303067204
-0.000146522828803
-0.000191912628606
6.87736604238e-05
-0.000470867164638
-0.000440361571661
0.000143433681027
-0.00043181899951
-0.000370824799142
0.000231767943125
2.79963363867e-05
0.000448135498208
-0.000259098762537
3.69562330254e-05
-0.000378473456703
-6.86684742743e-06
-0.000238964558322
-3.13483945084e-05
-0.000589396261555
-0.000286111459566
0.000404243075074
-4.89219569381e-05
-0.000158491851995
-0.000239768168541
5.66695491294e-05
-7.12095609791e-05
-9.60423945804e-05
3.69272226539e-05
-0.000207698366121
-0.000282235794298
-4.18737615348e-06
-0.0002590767454
-0.000426528534101
-0.000123097864574
-5.9228204994e-05
5.60475692961e-05
0.000272076718319
-0.000277052916091
3.83863840527e-05
-0.000295096806465
-0.00072615589846
-0.00024564206327
-3.8583202647e-05
-5.3524970595e-05
-0.000198127859907
-5.4450228957e-05
-0.000101305767739
0.000321588207244
-0.00025052873138
0.000308440618421
0.000242902475309
0.000274854586383
1.64114146892e-05
0.000395339987096
-0.000156205858154
-0.000245845170849
-9.76744253985e-05
-0.000307343323283
8.41684046403e-06
-4.30997975292e-05
-0.000136707244113
2.59318688425e-05
-5.192819877e-05
3.45699741554e-05
-0.000530894036151
4.950343913e-07
-0.000486403139486
-0.000272384035606
-0.000139975202134
-4.35996995793e-06
-0.000539609043472
-0.000540061572436
4.6268769212e-05
0.000403786194325
-0.000282059704987
-6.99250442787e-05
0.000643507476939
-0.000450405540635
0.000266624943024
0.00025978357451
-0.000356976831924
-0.00014349937081
-0.000112819390338
-0.000154987923095
-0.000384578948129
4.9784934139e-06
-0.000136794094203
0.000106221598804
-0.000240192644712
6.10654737822e-05
-2.92547313487e-05
-5.44996450776e-05
-0.000234191715408
-2.74969665918e-05
-0.000271957019738
-0.000160113111121
0.000133116279217
-6.37248389278e-05
-5.4144519202e-05
-0.00028220268782
7.89006334042e-05
-0.000274737404416
-9.69642637646e-05
-0.000195881737312
2.8812854125e-06
0.000155743840343
9.94835411923e-05
-0.000102715486863
-0.000252510966366
-0.00052727169477
-0.000386716660675
-0.000134955370058
-4.54203607212e-05
0.000511646180376
-0.000224634045976
0.00110427976603
-0.000321419577832
8.72233634668e-05
-0.000767113228253
0.000125102186726
-0.000205679243475
0.000210559116319
-0.000527731815779
-0.000186503872207
-0.000428267814113
0.000275607151586
-0.000307554370597
-0.000227866171209
0.000133469422493
-0.000128455730937
-2.33326907937e-05
-4.22210998905e-05
4.5873364068e-05
-9.02228348163e-05
4.47932150707e-05
0.000171672934119
-2.80607860658e-05
-0.00020185781306
-0.000657244915332
-0.000187086034053
-5.28580446409e-05
-0.000472937995913
4.36612533985e-05
0.000107887028376
-0.000324056318893
0.000113762229735
4.12538069591e-05
-3.74555030734e-05
4.5254221107e-05
0.000259079561688
-0.000131830459683
-2.71971557272e-05
-0.000378239894546
-0.000296800334083
0.000121261410228
-0.000421376372537
-1.46289148419e-06
-0.000214905940768
-2.3384616127e-05
-0.000209891133106
-0.000372237323639
2.02268348623e-05
-0.000350980018331
-0.000114885530549
-0.000116255512651
-6.89973821603e-05
-0.000172631331929
-0.000157097853313
-0.000265167637426
-0.00018593908668
-0.000216208203181
3.15193371189e-05
-0.000346727232357
-0.000313001104449
1.76774710157e-05
0.00012897077526
-0.000174833697146
-0.000110206264842
-0.000138400913724
-6.86025791109e-05
-0.000166717853383
-5.55410082874e-05
-3.89325597304e-05
-2.87149134069e-05
0.000177521496602
-4.94262680255e-05
0.000206119640887
1.88125103479e-05
-0.0003694642212
1.09846709602e-05
5.6723263439e-05
3.57097970362e-06
0.000390434036785
-0.000248185328919
